{
    "success": true,
    "message": null,
    "data": "eyJhbGciOiJIUzI1NiIsInR5cCI6IkpXVCJ9.eyJjb2RpZ28iOiIxMjM0NTY3ODkwIiwibm9tYnJlIjoiSm9obiBEb2UiLCJyb2wiOiJBRE1JTklTVFJBRE9SIiwiaWF0IjoxNTE2MjM5MDIyfQ.jQYl0iw2q015jyA52c71M_BK4GvZgSbAzgckXsAQy9I"
}